{
  "branches": [
    "+([0-9])?(.{+([0-9]),x}).x", "master", "main", "next", "next-major",
    {"name": "alpha", "channel": "alpha", "prerelease": "alpha"},
    {"name": "beta", "channel": "beta", "prerelease": "beta"},
    {"name": "rc", "channel": "rc", "prerelease": "rc"}
  ],
  "plugins": [
    "@semantic-release/commit-analyzer",
    "@semantic-release/release-notes-generator",
    "@semantic-release/changelog",
  ["@semantic-release/git", {
      "assets": ["CHANGELOG.md","pyproject.toml","README.md","deployment/prod.yml"],
      "message": "chore(release): ${nextRelease.version}\n\n${nextRelease.notes}"
    }],
  "@semantic-release/gitlab"
  ]
}
